Lab5
…
## Joining, by = "STATE"

fatal <- per %>%
  filter(INJ_SEV == 2)
danger <- fatal %>%
  group_by(State, Make) %>%
  summarize(n = n()) %>%
  group_by(State) %>%
  filter(n == max(n))

## `summarise()` has grouped output by 'State'. You can override using the `.groups` argument.

danger

## # A tibble: 54 x 3
## # Groups:   State [51]
##    State                Make          n
##    <chr>                <chr>     <int>
##  1 Alabama              Chevrolet    41
##  2 Alaska               Chevrolet     7
##  3 Arizona              Ford         51
##  4 Arkansas             Ford         18
##  5 California           Ford        147
##  6 Colorado             Ford         21
##  7 Connecticut          Ford         12
##  8 Delaware             Ford          7
##  9 District of Columbia Honda         2
## 10 District of Columbia Toyota        2
## #  with 44 more rows
…
